{
  "tasks": [
    {
      "id": 1,
      "text": "Doctors Appointment",
      "day": "Feb 5th at 3:30pm",
      "reminder": true
    },
    {
      "id": 2,
      "text": "Meeting at School",
      "day": "Feb 6th at 1:30pm",
      "reminder": true
    },
    {
      "id": 3,
      "text": "Food Shopping",
      "day": "Feb 5th at 2:30pm",
      "reminder": false
    },
    {
      "text": "Go shopping",
      "day": "Fri 6 1:15PM",
      "reminder": true,
      "id": 4
    },
    {
      "text": "My task",
      "day": "Friday",
      "reminder": false,
      "id": 5
    },
    {
      "text": "New task",
      "day": "Monday 10:20AM",
      "reminder": true,
      "id": 6
    }
  ]
}